

 NAS Parallel Benchmarks 3.4 -- BT Benchmark

 No input file inputbt.data. Using compiled defaults
 Error encountered in allocating space
 Error encountered in allocating space
 Size:  408x 408x 408  (class D)
 Iterations:  250    dt:   0.0000200
 Total number of processes:     4

 Error encountered in allocating space
 Error encountered in allocating space
